(module IMU_BNO080 (layer F.Cu) (tedit 61EDCCC8)
  (descr "Through hole straight pin header, 1x04, 2.54mm pitch, single row")
  (tags "Through hole pin header THT 1x04 2.54mm single row")
  (fp_text reference J1 (at 1.27 -3.81) (layer B.SilkS)
    (effects (font (size 1 1) (thickness 0.15)) (justify mirror))
  )
  (fp_text value imu_sensor (at 3.81 19.05) (layer B.SilkS)
    (effects (font (size 1 1) (thickness 0.15)) (justify mirror))
  )
  (fp_text user GND (at 3.81 7.62) (layer B.SilkS)
    (effects (font (size 1 1) (thickness 0.15)) (justify mirror))
  )
  (fp_text user 3.3v (at 3.81 5.08) (layer B.SilkS)
    (effects (font (size 1 1) (thickness 0.15)) (justify mirror))
  )
  (fp_text user scl (at 3.81 0) (layer B.SilkS)
    (effects (font (size 1 1) (thickness 0.15)) (justify mirror))
  )
  (fp_text user sda (at 3.81 2.54) (layer B.SilkS)
    (effects (font (size 1 1) (thickness 0.15)) (justify mirror))
  )
  (fp_text user %R (at 0 3.81 90) (layer B.SilkS)
    (effects (font (size 1 1) (thickness 0.15)) (justify mirror))
  )
  (fp_line (start 25.4 -12.7) (end -1.27 -12.7) (layer B.SilkS) (width 0.12))
  (fp_line (start 25.4 20.32) (end 25.4 -12.7) (layer B.SilkS) (width 0.12))
  (fp_line (start -1.27 20.32) (end 25.4 20.32) (layer B.SilkS) (width 0.12))
  (fp_line (start -1.27 -12.7) (end -1.27 20.32) (layer B.SilkS) (width 0.12))
  (fp_line (start -0.635 -1.27) (end 1.27 -1.27) (layer F.Fab) (width 0.1))
  (fp_line (start 1.27 -1.27) (end 1.27 8.89) (layer F.Fab) (width 0.1))
  (fp_line (start 1.27 8.89) (end -1.27 8.89) (layer F.Fab) (width 0.1))
  (fp_line (start -1.27 8.89) (end -1.27 -0.635) (layer F.Fab) (width 0.1))
  (fp_line (start -1.27 -0.635) (end -0.635 -1.27) (layer F.Fab) (width 0.1))
  (fp_line (start -1.33 8.95) (end 1.33 8.95) (layer F.SilkS) (width 0.12))
  (fp_line (start -1.33 1.27) (end -1.33 8.95) (layer F.SilkS) (width 0.12))
  (fp_line (start 1.33 1.27) (end 1.33 8.95) (layer F.SilkS) (width 0.12))
  (fp_line (start -1.33 1.27) (end 1.33 1.27) (layer F.SilkS) (width 0.12))
  (fp_line (start -1.33 0) (end -1.33 -1.33) (layer F.SilkS) (width 0.12))
  (fp_line (start -1.33 -1.33) (end 0 -1.33) (layer F.SilkS) (width 0.12))
  (fp_line (start -1.8 9.4) (end 1.8 9.4) (layer F.CrtYd) (width 0.05))
  (pad 4 thru_hole oval (at 0 7.62) (size 1.7 1.7) (drill 1) (layers *.Cu *.Mask))
  (pad 3 thru_hole oval (at 0 5.08) (size 1.7 1.7) (drill 1) (layers *.Cu *.Mask))
  (pad 2 thru_hole oval (at 0 2.54) (size 1.7 1.7) (drill 1) (layers *.Cu *.Mask))
  (pad 1 thru_hole rect (at 0 0) (size 1.7 1.7) (drill 1) (layers *.Cu *.Mask))
  (model ${KISYS3DMOD}/Connector_PinHeader_2.54mm.3dshapes/PinHeader_1x04_P2.54mm_Vertical.wrl
    (at (xyz 0 0 0))
    (scale (xyz 1 1 1))
    (rotate (xyz 0 0 0))
  )
)
