(footprint "power" (version 20211014) (generator pcbnew)
  (layer "F.Cu")
  (tedit 59FED5CC)
  (descr "Through hole straight pin header, 1x04, 2.54mm pitch, single row")
  (tags "Through hole pin header THT 1x04 2.54mm single row")
  (attr through_hole)
  (fp_text reference "REF**" (at 1.651 6.135) (layer "F.SilkS")
    (effects (font (size 1 1) (thickness 0.15)))
    (tstamp d559e78f-9137-43bf-9f69-165532415fcf)
  )
  (fp_text value "power" (at 10.287 7.405) (layer "F.Fab")
    (effects (font (size 1 1) (thickness 0.15)))
    (tstamp 348f53c9-f22c-45ad-a1c8-50113d0805cb)
  )
  (fp_text user "IN-" (at 15.621 0 unlocked) (layer "F.SilkS")
    (effects (font (size 1 1) (thickness 0.15)))
    (tstamp 52b09ece-23b2-4f91-a9bf-88ae04a9ec01)
  )
  (fp_text user "OUT+" (at 4.445 14.009 unlocked) (layer "F.SilkS")
    (effects (font (size 1 1) (thickness 0.15)))
    (tstamp 89f736dd-8d0f-4022-bfaa-18aafe4a7b5e)
  )
  (fp_text user "IN+" (at 15.621 14.136 unlocked) (layer "F.SilkS")
    (effects (font (size 1 1) (thickness 0.15)))
    (tstamp a5d5547d-6a85-469b-9639-afc523701594)
  )
  (fp_text user "OUT-" (at 3.683 -0.088 unlocked) (layer "F.SilkS")
    (effects (font (size 1 1) (thickness 0.15)))
    (tstamp c573d4d0-c58a-495d-a605-16802f7b1cbc)
  )
  (fp_line (start -1.397 -1.231) (end -1.370516 15.359478) (layer "F.SilkS") (width 0.12) (tstamp 00893ab5-74cb-443a-911a-502e204b19cd))
  (fp_line (start -1.370516 -1.557358) (end -1.370516 -1.368695) (layer "F.SilkS") (width 0.12) (tstamp 29f55d41-bd93-4249-8d3f-ec7c83c8c4c8))
  (fp_line (start -1.370516 15.359478) (end 19.885582 15.359478) (layer "F.SilkS") (width 0.12) (tstamp 5e3619d0-30ba-4eb1-82f2-6f98e725eb67))
  (fp_line (start 19.885582 15.359478) (end 19.885582 -1.557358) (layer "F.SilkS") (width 0.12) (tstamp 76e28620-c8af-4203-af6c-dd6b2602cbbc))
  (fp_line (start 19.885582 -1.557358) (end -1.370516 -1.557358) (layer "F.SilkS") (width 0.12) (tstamp 9277cb09-69d5-41d7-92ad-69bea487ba7c))
  (pad "1" thru_hole rect (at 18.415 14.009) (size 1.7 1.7) (drill 1) (layers *.Cu *.Mask) (tstamp 154cd23f-521c-47b4-b321-b81bccc55300))
  (pad "2" thru_hole oval (at 18.415 0) (size 1.7 1.7) (drill 1) (layers *.Cu *.Mask) (tstamp 73467b20-058f-45e4-ac84-184d62db7dc8))
  (pad "3" thru_hole oval (at 0 0) (size 1.7 1.7) (drill 1) (layers *.Cu *.Mask) (tstamp 70affaf9-cf8f-4cfc-b9e7-c80a572e37b4))
  (pad "4" thru_hole oval (at 0.127 14.009) (size 1.7 1.7) (drill 1) (layers *.Cu *.Mask) (tstamp 7773fc0b-045f-44e0-9512-f82000fc06b7))
  (model "${KICAD6_3DMODEL_DIR}/Connector_PinHeader_2.54mm.3dshapes/PinHeader_1x04_P2.54mm_Vertical.wrl"
    (offset (xyz 0 0 0))
    (scale (xyz 1 1 1))
    (rotate (xyz 0 0 0))
  )
)
