
G21
G90
G94
F200.00
G00 Z0.3000
M03
G4 P1
G00 X-0.0037Y-0.0749
G01 Z-0.1500
G01 X1.7000Y-0.0750
G01 X1.7110Y-0.0742
G01 X1.7182Y-0.0728
G01 X1.7321Y-0.0678
G01 X1.7447Y-0.0602
G01 X1.7504Y-0.0556
G01 X1.7602Y-0.0447
G01 X1.7643Y-0.0386
G01 X1.7706Y-0.0253
G01 X1.7728Y-0.0182
G01 X1.7749Y-0.0037
G01 X1.7750Y0.7871
G01 X5.8188Y0.7871
G01 X5.8301Y0.7725
G01 X5.8886Y0.7080
G01 X5.9588Y0.6448
G01 X6.0288Y0.5930
G01 X6.1035Y0.5481
G01 X6.1922Y0.5061
G01 X6.2742Y0.4769
G01 X6.3587Y0.4556
G01 X6.4520Y0.4415
G01 X6.5464Y0.4372
G01 X6.6334Y0.4415
G01 X6.7232Y0.4548
G01 X6.8112Y0.4769
G01 X6.8967Y0.5075
G01 X6.9788Y0.5463
G01 X7.0566Y0.5930
G01 X7.1295Y0.6470
G01 X7.1968Y0.7080
G01 X7.2577Y0.7752
G01 X7.3118Y0.8482
G01 X7.3585Y0.9260
G01 X7.3973Y1.0081
G01 X7.4279Y1.0935
G01 X7.4499Y1.1816
G01 X7.4633Y1.2714
G01 X7.4677Y1.3621
G01 X7.4633Y1.4527
G01 X7.4499Y1.5425
G01 X7.4279Y1.6306
G01 X7.3973Y1.7160
G01 X7.3585Y1.7981
G01 X7.3138Y1.8729
G01 X7.2553Y1.9517
G01 X7.1968Y2.0161
G01 X7.1295Y2.0771
G01 X7.0566Y2.1312
G01 X6.9820Y2.1760
G01 X6.8933Y2.2180
G01 X6.8112Y2.2472
G01 X6.7232Y2.2693
G01 X6.6334Y2.2826
G01 X6.5464Y2.2870
G01 X6.4520Y2.2826
G01 X6.3587Y2.2685
G01 X6.2742Y2.2472
G01 X6.1922Y2.2180
G01 X6.1100Y2.1795
G01 X6.0288Y2.1312
G01 X5.9559Y2.0771
G01 X5.8886Y2.0161
G01 X5.8301Y1.9517
G01 X5.8188Y1.9371
G01 X1.3602Y1.9370
G01 X1.3057Y1.9343
G01 X1.2499Y1.9260
G01 X1.1951Y1.9123
G01 X1.1420Y1.8933
G01 X1.0910Y1.8692
G01 X1.0426Y1.8402
G01 X0.9973Y1.8065
G01 X0.9623Y1.7750
G01 X0.0000Y1.7750
G01 X-0.0110Y1.7742
G01 X-0.0182Y1.7728
G01 X-0.0321Y1.7678
G01 X-0.0386Y1.7643
G01 X-0.0504Y1.7556
G01 X-0.0602Y1.7447
G01 X-0.0678Y1.7321
G01 X-0.0706Y1.7253
G01 X-0.0742Y1.7110
G01 X-0.0749Y1.7037
G01 X-0.0750Y0.0000
G01 X-0.0742Y-0.0110
G01 X-0.0706Y-0.0253
G01 X-0.0643Y-0.0386
G01 X-0.0556Y-0.0504
G01 X-0.0447Y-0.0602
G01 X-0.0321Y-0.0678
G01 X-0.0182Y-0.0728
G01 X-0.0037Y-0.0749
G00 Z0.3000
G00 X-0.0096Y-0.1948
G01 Z-0.1500
G01 X-0.0286Y-0.1929
G01 X-0.0474Y-0.1892
G01 X-0.0657Y-0.1836
G01 X-0.0834Y-0.1763
G01 X-0.1003Y-0.1673
G01 X-0.1162Y-0.1566
G01 X-0.1310Y-0.1445
G01 X-0.1445Y-0.1310
G01 X-0.1566Y-0.1162
G01 X-0.1673Y-0.1002
G01 X-0.1763Y-0.0834
G01 X-0.1836Y-0.0657
G01 X-0.1892Y-0.0474
G01 X-0.1929Y-0.0286
G01 X-0.1950Y0.0000
G01 X-0.1948Y1.7096
G01 X-0.1929Y1.7286
G01 X-0.1892Y1.7474
G01 X-0.1836Y1.7657
G01 X-0.1763Y1.7834
G01 X-0.1673Y1.8002
G01 X-0.1566Y1.8162
G01 X-0.1445Y1.8310
G01 X-0.1310Y1.8445
G01 X-0.1162Y1.8566
G01 X-0.1003Y1.8673
G01 X-0.0834Y1.8763
G01 X-0.0657Y1.8836
G01 X-0.0474Y1.8892
G01 X-0.0286Y1.8929
G01 X0.0000Y1.8950
G01 X0.9162Y1.8950
G01 X0.9287Y1.9052
G01 X0.9759Y1.9399
G01 X1.0261Y1.9703
G01 X1.0430Y1.9793
G01 X1.0873Y2.0003
G01 X1.1050Y2.0076
G01 X1.1603Y2.0271
G01 X1.2265Y2.0437
G01 X1.2939Y2.0537
G01 X1.3573Y2.0570
G01 X5.7637Y2.0571
G01 X5.8038Y2.1010
G01 X5.8725Y2.1636
G01 X5.8873Y2.1757
G01 X5.9543Y2.2254
G01 X5.9702Y2.2361
G01 X6.0501Y2.2837
G01 X6.1341Y2.3236
G01 X6.1517Y2.3310
G01 X6.2394Y2.3621
G01 X6.3388Y2.3870
G01 X6.4403Y2.4020
G01 X6.5331Y2.4068
G01 X6.5523Y2.4068
G01 X6.6451Y2.4020
G01 X6.7466Y2.3870
G01 X6.8461Y2.3621
G01 X6.9337Y2.3310
G01 X6.9514Y2.3236
G01 X7.0268Y2.2880
G01 X7.0436Y2.2790
G01 X7.1233Y2.2309
G01 X7.2056Y2.1699
G01 X7.2816Y2.1010
G01 X7.3443Y2.0322
G01 X7.3564Y2.0175
G01 X7.4061Y1.9505
G01 X7.4167Y1.9345
G01 X7.4643Y1.8547
G01 X7.5082Y1.7620
G01 X7.5427Y1.6654
G01 X7.5655Y1.5753
G01 X7.5693Y1.5565
G01 X7.5827Y1.4645
G01 X7.5877Y1.3621
G01 X7.5827Y1.2596
G01 X7.5676Y1.1582
G01 X7.5427Y1.0587
G01 X7.5082Y0.9622
G01 X7.4643Y0.8695
G01 X7.4116Y0.7815
G01 X7.3505Y0.6991
G01 X7.2816Y0.6231
G01 X7.2056Y0.5543
G01 X7.1233Y0.4932
G01 X7.0353Y0.4405
G01 X6.9426Y0.3966
G01 X6.8461Y0.3621
G01 X6.7559Y0.3392
G01 X6.7371Y0.3355
G01 X6.6546Y0.3233
G01 X6.6356Y0.3214
G01 X6.5427Y0.3171
G01 X6.4498Y0.3214
G01 X6.4308Y0.3233
G01 X6.3388Y0.3371
G01 X6.2486Y0.3595
G01 X6.2303Y0.3651
G01 X6.1428Y0.3966
G01 X6.0586Y0.4361
G01 X6.0418Y0.4452
G01 X5.9621Y0.4932
G01 X5.8873Y0.5484
G01 X5.8725Y0.5605
G01 X5.8038Y0.6231
G01 X5.7637Y0.6671
G01 X1.8950Y0.6671
G01 X1.8950Y-0.0000
G01 X1.8929Y-0.0286
G01 X1.8892Y-0.0474
G01 X1.8836Y-0.0657
G01 X1.8763Y-0.0834
G01 X1.8673Y-0.1002
G01 X1.8566Y-0.1162
G01 X1.8445Y-0.1310
G01 X1.8310Y-0.1445
G01 X1.8162Y-0.1566
G01 X1.8003Y-0.1673
G01 X1.7834Y-0.1763
G01 X1.7657Y-0.1836
G01 X1.7474Y-0.1892
G01 X1.7286Y-0.1929
G01 X1.7000Y-0.1950
G01 X-0.0096Y-0.1948
G00 Z0.3000
G00 X-0.0155Y-0.3146
G01 Z-0.1500
G01 X-0.0462Y-0.3116
G01 X-0.0765Y-0.3056
G01 X-0.1061Y-0.2966
G01 X-0.1347Y-0.2848
G01 X-0.1619Y-0.2702
G01 X-0.1876Y-0.2530
G01 X-0.2115Y-0.2334
G01 X-0.2334Y-0.2115
G01 X-0.2530Y-0.1876
G01 X-0.2702Y-0.1619
G01 X-0.2848Y-0.1347
G01 X-0.2966Y-0.1061
G01 X-0.3056Y-0.0765
G01 X-0.3116Y-0.0462
G01 X-0.3146Y-0.0155
G01 X-0.3150Y1.7000
G01 X-0.3146Y1.7155
G01 X-0.3116Y1.7462
G01 X-0.3056Y1.7765
G01 X-0.2966Y1.8061
G01 X-0.2848Y1.8347
G01 X-0.2702Y1.8619
G01 X-0.2530Y1.8876
G01 X-0.2334Y1.9115
G01 X-0.2115Y1.9334
G01 X-0.1876Y1.9530
G01 X-0.1619Y1.9702
G01 X-0.1347Y1.9848
G01 X-0.1061Y1.9966
G01 X-0.0765Y2.0056
G01 X-0.0462Y2.0116
G01 X-0.0155Y2.0146
G01 X0.0000Y2.0150
G01 X0.8753Y2.0150
G01 X0.9093Y2.0397
G01 X0.9779Y2.0808
G01 X1.0502Y2.1150
G01 X1.1108Y2.1371
G01 X1.1404Y2.1461
G01 X1.1880Y2.1580
G01 X1.2183Y2.1640
G01 X1.2822Y2.1731
G01 X1.3543Y2.1770
G01 X5.7106Y2.1771
G01 X5.7301Y2.1965
G01 X5.8036Y2.2626
G01 X5.8955Y2.3307
G01 X5.9935Y2.3895
G01 X6.0969Y2.4384
G01 X6.2045Y2.4769
G01 X6.3154Y2.5047
G01 X6.4285Y2.5214
G01 X6.5273Y2.5267
G01 X6.5582Y2.5267
G01 X6.6569Y2.5214
G01 X6.7548Y2.5073
G01 X6.7851Y2.5013
G01 X6.8660Y2.4810
G01 X6.8956Y2.4720
G01 X6.9885Y2.4384
G01 X7.0919Y2.3895
G01 X7.1899Y2.3307
G01 X7.2696Y2.2721
G01 X7.2935Y2.2525
G01 X7.3553Y2.1965
G01 X7.3771Y2.1746
G01 X7.4433Y2.1011
G01 X7.5114Y2.0093
G01 X7.5701Y1.9112
G01 X7.6128Y1.8220
G01 X7.6246Y1.7935
G01 X7.6527Y1.7149
G01 X7.6617Y1.6853
G01 X7.6853Y1.5893
G01 X7.7021Y1.4763
G01 X7.7077Y1.3621
G01 X7.7021Y1.2479
G01 X7.6853Y1.1348
G01 X7.6575Y1.0239
G01 X7.6190Y0.9162
G01 X7.5701Y0.8129
G01 X7.5114Y0.7148
G01 X7.4433Y0.6230
G01 X7.3665Y0.5383
G01 X7.2818Y0.4615
G01 X7.1899Y0.3934
G01 X7.0919Y0.3346
G01 X6.9885Y0.2857
G01 X6.8956Y0.2521
G01 X6.8660Y0.2431
G01 X6.7700Y0.2194
G01 X6.6722Y0.2046
G01 X6.6415Y0.2015
G01 X6.5427Y0.1971
G01 X6.4439Y0.2015
G01 X6.4132Y0.2046
G01 X6.3154Y0.2194
G01 X6.2194Y0.2431
G01 X6.1898Y0.2521
G01 X6.0969Y0.2857
G01 X6.0073Y0.3277
G01 X5.9801Y0.3422
G01 X5.8955Y0.3934
G01 X5.8158Y0.4520
G01 X5.7919Y0.4716
G01 X5.7301Y0.5276
G01 X5.7106Y0.5471
G01 X2.0150Y0.5471
G01 X2.0150Y-0.0000
G01 X2.0146Y-0.0155
G01 X2.0116Y-0.0462
G01 X2.0056Y-0.0765
G01 X1.9966Y-0.1061
G01 X1.9848Y-0.1347
G01 X1.9702Y-0.1619
G01 X1.9530Y-0.1876
G01 X1.9334Y-0.2115
G01 X1.9115Y-0.2334
G01 X1.8876Y-0.2530
G01 X1.8619Y-0.2702
G01 X1.8347Y-0.2848
G01 X1.8061Y-0.2966
G01 X1.7765Y-0.3056
G01 X1.7462Y-0.3116
G01 X1.7155Y-0.3146
G01 X1.7000Y-0.3150
G01 X-0.0155Y-0.3146
G00 Z0.3000
G00 X0.2750Y4.1139
G01 Z-0.1500
G01 X0.2604Y4.1026
G01 X0.1959Y4.0441
G01 X0.1350Y3.9768
G01 X0.0809Y3.9039
G01 X0.0342Y3.8260
G01 X-0.0046Y3.7440
G01 X-0.0352Y3.6585
G01 X-0.0572Y3.5705
G01 X-0.0705Y3.4807
G01 X-0.0750Y3.3900
G01 X-0.0705Y3.2993
G01 X-0.0572Y3.2095
G01 X-0.0352Y3.1215
G01 X-0.0046Y3.0360
G01 X0.0342Y2.9540
G01 X0.0809Y2.8761
G01 X0.1350Y2.8032
G01 X0.1959Y2.7359
G01 X0.2632Y2.6750
G01 X0.3361Y2.6209
G01 X0.4140Y2.5742
G01 X0.4960Y2.5354
G01 X0.5815Y2.5048
G01 X0.6695Y2.4828
G01 X0.7593Y2.4695
G01 X0.8500Y2.4650
G01 X0.9407Y2.4695
G01 X1.0305Y2.4828
G01 X1.1185Y2.5048
G01 X1.2040Y2.5354
G01 X1.2860Y2.5742
G01 X1.3639Y2.6209
G01 X1.4368Y2.6750
G01 X1.5041Y2.7359
G01 X1.5650Y2.8032
G01 X1.6191Y2.8761
G01 X1.6674Y2.9572
G01 X1.7046Y3.0360
G01 X1.7340Y3.1180
G01 X1.7564Y3.2059
G01 X1.7705Y3.2993
G01 X1.7750Y3.3900
G01 X1.7705Y3.4807
G01 X1.7564Y3.5741
G01 X1.7352Y3.6585
G01 X1.7059Y3.7405
G01 X1.6674Y3.8228
G01 X1.6191Y3.9039
G01 X1.5650Y3.9768
G01 X1.5041Y4.0441
G01 X1.4396Y4.1026
G01 X1.4250Y4.1139
G01 X1.4250Y5.2061
G01 X1.4396Y5.2174
G01 X1.5041Y5.2759
G01 X1.5626Y5.3404
G01 X1.5739Y5.3550
G01 X2.9600Y5.3550
G01 X3.0164Y5.3578
G01 X3.0722Y5.3660
G01 X3.1234Y5.3788
G01 X3.1800Y5.3988
G01 X3.2311Y5.4229
G01 X3.2763Y5.4499
G01 X3.3248Y5.4855
G01 X3.3666Y5.5234
G01 X12.6392Y14.7961
G01 X24.1068Y14.7961
G01 X24.1181Y14.7815
G01 X24.1766Y14.7170
G01 X24.2468Y14.6538
G01 X24.3168Y14.6020
G01 X24.3915Y14.5571
G01 X24.4767Y14.5165
G01 X24.5622Y14.4859
G01 X24.6539Y14.4632
G01 X24.7437Y14.4502
G01 X24.8307Y14.4461
G01 X24.9177Y14.4502
G01 X25.0112Y14.4638
G01 X25.0992Y14.4859
G01 X25.1847Y14.5165
G01 X25.2700Y14.5571
G01 X25.3476Y14.6041
G01 X25.4175Y14.6560
G01 X25.4821Y14.7144
G01 X25.5457Y14.7842
G01 X25.6018Y14.8603
G01 X25.6481Y14.9383
G01 X25.6853Y15.0171
G01 X25.7147Y15.0991
G01 X25.7379Y15.1906
G01 X25.7513Y15.2804
G01 X25.7556Y15.3747
G01 X25.7513Y15.4617
G01 X25.7386Y15.5479
G01 X25.7159Y15.6396
G01 X25.6838Y15.7284
G01 X25.6465Y15.8071
G01 X25.6018Y15.8819
G01 X25.5457Y15.9579
G01 X25.4821Y16.0277
G01 X25.4175Y16.0861
G01 X25.3446Y16.1402
G01 X25.2635Y16.1885
G01 X25.1847Y16.2256
G01 X25.0992Y16.2562
G01 X25.0075Y16.2789
G01 X24.9214Y16.2916
G01 X24.8344Y16.2960
G01 X24.7400Y16.2916
G01 X24.6467Y16.2775
G01 X24.5587Y16.2551
G01 X24.4767Y16.2256
G01 X24.3980Y16.1885
G01 X24.3168Y16.1402
G01 X24.2439Y16.0861
G01 X24.1766Y16.0251
G01 X24.1181Y15.9607
G01 X24.1068Y15.9461
G01 X7.1396Y15.9461
G01 X7.1283Y15.9607
G01 X7.0671Y16.0277
G01 X7.0025Y16.0861
G01 X6.9296Y16.1402
G01 X6.8518Y16.1868
G01 X6.7731Y16.2242
G01 X6.6807Y16.2572
G01 X6.5962Y16.2783
G01 X6.5064Y16.2916
G01 X6.4157Y16.2961
G01 X6.3287Y16.2919
G01 X6.2317Y16.2775
G01 X6.1472Y16.2562
G01 X6.0584Y16.2242
G01 X5.9797Y16.1868
G01 X5.9049Y16.1421
G01 X5.8289Y16.0861
G01 X5.7616Y16.0251
G01 X5.7031Y15.9607
G01 X5.6446Y15.8819
G01 X5.5999Y15.8071
G01 X5.5626Y15.7284
G01 X5.5296Y15.6360
G01 X5.5085Y15.5515
G01 X5.4952Y15.4617
G01 X5.4907Y15.3711
G01 X5.4949Y15.2841
G01 X5.5093Y15.1870
G01 X5.5305Y15.1025
G01 X5.5611Y15.0171
G01 X5.5999Y14.9350
G01 X5.6446Y14.8603
G01 X5.7007Y14.7842
G01 X5.7616Y14.7170
G01 X5.8261Y14.6584
G01 X5.9018Y14.6020
G01 X5.9797Y14.5553
G01 X6.0584Y14.5180
G01 X6.1472Y14.4859
G01 X6.2353Y14.4638
G01 X6.3214Y14.4510
G01 X6.4157Y14.4461
G01 X6.5100Y14.4510
G01 X6.5962Y14.4638
G01 X6.6842Y14.4859
G01 X6.7731Y14.5180
G01 X6.8518Y14.5553
G01 X6.9296Y14.6020
G01 X7.0025Y14.6560
G01 X7.0671Y14.7144
G01 X7.1283Y14.7815
G01 X7.1396Y14.7961
G01 X11.0129Y14.7961
G01 X2.7218Y6.5050
G01 X1.5739Y6.5050
G01 X1.5626Y6.5196
G01 X1.5041Y6.5841
G01 X1.4368Y6.6450
G01 X1.3639Y6.6991
G01 X1.2828Y6.7474
G01 X1.2040Y6.7846
G01 X1.1150Y6.8162
G01 X1.0268Y6.8379
G01 X0.9407Y6.8505
G01 X0.8537Y6.8549
G01 X0.7593Y6.8505
G01 X0.6695Y6.8372
G01 X0.5815Y6.8152
G01 X0.4960Y6.7846
G01 X0.4140Y6.7458
G01 X0.3361Y6.6991
G01 X0.2632Y6.6450
G01 X0.1959Y6.5841
G01 X0.1350Y6.5168
G01 X0.0809Y6.4439
G01 X0.0342Y6.3660
G01 X-0.0046Y6.2840
G01 X-0.0352Y6.1985
G01 X-0.0572Y6.1105
G01 X-0.0705Y6.0207
G01 X-0.0749Y5.9263
G01 X-0.0705Y5.8393
G01 X-0.0579Y5.7532
G01 X-0.0362Y5.6650
G01 X-0.0046Y5.5760
G01 X0.0326Y5.4972
G01 X0.0809Y5.4161
G01 X0.1350Y5.3432
G01 X0.1959Y5.2759
G01 X0.2604Y5.2174
G01 X0.2750Y5.2061
G01 X0.2750Y4.1139
G00 Z0.3000
G00 X0.1550Y4.1691
G01 Z-0.1500
G01 X0.1550Y5.1509
G01 X0.1111Y5.1911
G01 X0.0485Y5.2598
G01 X0.0363Y5.2746
G01 X-0.0134Y5.3416
G01 X-0.0240Y5.3575
G01 X-0.0716Y5.4374
G01 X-0.1116Y5.5213
G01 X-0.1189Y5.5390
G01 X-0.1500Y5.6267
G01 X-0.1749Y5.7261
G01 X-0.1900Y5.8276
G01 X-0.1950Y5.9300
G01 X-0.1900Y6.0324
G01 X-0.1749Y6.1339
G01 X-0.1500Y6.2333
G01 X-0.1155Y6.3299
G01 X-0.0716Y6.4226
G01 X-0.0189Y6.5106
G01 X0.0422Y6.5929
G01 X0.1111Y6.6689
G01 X0.1871Y6.7378
G01 X0.2694Y6.7989
G01 X0.3574Y6.8516
G01 X0.4501Y6.8955
G01 X0.5467Y6.9300
G01 X0.6461Y6.9549
G01 X0.7476Y6.9700
G01 X0.8500Y6.9750
G01 X0.9524Y6.9700
G01 X1.0539Y6.9549
G01 X1.1533Y6.9300
G01 X1.2410Y6.8989
G01 X1.2587Y6.8916
G01 X1.3426Y6.8516
G01 X1.4225Y6.8040
G01 X1.4384Y6.7934
G01 X1.5054Y6.7437
G01 X1.5202Y6.7315
G01 X1.5889Y6.6689
G01 X1.6291Y6.6250
G01 X2.6721Y6.6250
G01 X10.7232Y14.6761
G01 X7.1948Y14.6761
G01 X7.1546Y14.6321
G01 X7.0859Y14.5695
G01 X7.0711Y14.5574
G01 X6.9963Y14.5022
G01 X6.9083Y14.4495
G01 X6.8244Y14.4095
G01 X6.8067Y14.4022
G01 X6.7281Y14.3741
G01 X6.7098Y14.3685
G01 X6.6196Y14.3461
G01 X6.5276Y14.3323
G01 X6.5086Y14.3304
G01 X6.4157Y14.3261
G01 X6.3133Y14.3311
G01 X6.2213Y14.3445
G01 X6.2025Y14.3482
G01 X6.1216Y14.3685
G01 X6.1033Y14.3741
G01 X6.0158Y14.4056
G01 X5.9316Y14.4451
G01 X5.9148Y14.4542
G01 X5.8351Y14.5022
G01 X5.7528Y14.5633
G01 X5.6837Y14.6255
G01 X5.6702Y14.6391
G01 X5.6142Y14.7009
G01 X5.6020Y14.7157
G01 X5.5468Y14.7905
G01 X5.4988Y14.8701
G01 X5.4898Y14.8870
G01 X5.4541Y14.9624
G01 X5.4468Y14.9801
G01 X5.4157Y15.0677
G01 X5.3908Y15.1672
G01 X5.3757Y15.2686
G01 X5.3709Y15.3615
G01 X5.3709Y15.3806
G01 X5.3750Y15.4639
G01 X5.3769Y15.4830
G01 X5.3908Y15.5749
G01 X5.4157Y15.6744
G01 X5.4468Y15.7620
G01 X5.4541Y15.7797
G01 X5.4941Y15.8637
G01 X5.5468Y15.9516
G01 X5.6020Y16.0265
G01 X5.6142Y16.0412
G01 X5.6768Y16.1100
G01 X5.7528Y16.1789
G01 X5.8273Y16.2344
G01 X5.8432Y16.2451
G01 X5.9231Y16.2927
G01 X6.0071Y16.3326
G01 X6.0247Y16.3400
G01 X6.1033Y16.3681
G01 X6.1216Y16.3736
G01 X6.2118Y16.3960
G01 X6.3133Y16.4110
G01 X6.4157Y16.4161
G01 X6.5086Y16.4117
G01 X6.5276Y16.4099
G01 X6.6196Y16.3960
G01 X6.7191Y16.3711
G01 X6.8067Y16.3400
G01 X6.8244Y16.3326
G01 X6.8998Y16.2970
G01 X6.9166Y16.2880
G01 X6.9963Y16.2399
G01 X7.0786Y16.1789
G01 X7.1546Y16.1100
G01 X7.1948Y16.0661
G01 X24.0517Y16.0661
G01 X24.0918Y16.1100
G01 X24.1605Y16.1726
G01 X24.1753Y16.1847
G01 X24.2423Y16.2344
G01 X24.2582Y16.2451
G01 X24.3381Y16.2927
G01 X24.4221Y16.3326
G01 X24.4397Y16.3400
G01 X24.5274Y16.3711
G01 X24.6268Y16.3960
G01 X24.7283Y16.4110
G01 X24.8211Y16.4158
G01 X24.8403Y16.4158
G01 X24.9331Y16.4110
G01 X25.0251Y16.3976
G01 X25.0439Y16.3939
G01 X25.1341Y16.3711
G01 X25.2306Y16.3365
G01 X25.3148Y16.2970
G01 X25.3316Y16.2880
G01 X25.4113Y16.2399
G01 X25.4936Y16.1789
G01 X25.5627Y16.1166
G01 X25.5762Y16.1031
G01 X25.6385Y16.0340
G01 X25.6941Y15.9595
G01 X25.7047Y15.9435
G01 X25.7523Y15.8637
G01 X25.7923Y15.7797
G01 X25.7996Y15.7620
G01 X25.8307Y15.6744
G01 X25.8556Y15.5749
G01 X25.8707Y15.4735
G01 X25.8755Y15.3806
G01 X25.8755Y15.3615
G01 X25.8707Y15.2686
G01 X25.8573Y15.1766
G01 X25.8535Y15.1579
G01 X25.8333Y15.0769
G01 X25.8277Y15.0586
G01 X25.7962Y14.9712
G01 X25.7566Y14.8870
G01 X25.7476Y14.8701
G01 X25.7047Y14.7986
G01 X25.6941Y14.7827
G01 X25.6385Y14.7081
G01 X25.5762Y14.6391
G01 X25.5627Y14.6255
G01 X25.4936Y14.5633
G01 X25.4113Y14.5022
G01 X25.3233Y14.4495
G01 X25.2394Y14.4095
G01 X25.2217Y14.4022
G01 X25.1341Y14.3711
G01 X25.0439Y14.3482
G01 X25.0251Y14.3445
G01 X24.9331Y14.3311
G01 X24.8403Y14.3263
G01 X24.8211Y14.3263
G01 X24.7283Y14.3311
G01 X24.6363Y14.3445
G01 X24.6175Y14.3482
G01 X24.5274Y14.3711
G01 X24.4308Y14.4056
G01 X24.3381Y14.4495
G01 X24.2582Y14.4971
G01 X24.2423Y14.5077
G01 X24.1753Y14.5574
G01 X24.1605Y14.5695
G01 X24.0918Y14.6321
G01 X24.0517Y14.6761
G01 X12.6889Y14.6761
G01 X3.4514Y5.4386
G01 X3.4009Y5.3928
G01 X3.3539Y5.3576
G01 X3.3380Y5.3470
G01 X3.2876Y5.3171
G01 X3.2260Y5.2879
G01 X3.1708Y5.2679
G01 X3.1525Y5.2624
G01 X3.0956Y5.2484
G01 X3.0376Y5.2395
G01 X3.0186Y5.2376
G01 X2.9600Y5.2350
G01 X1.6291Y5.2350
G01 X1.5889Y5.1911
G01 X1.5450Y5.1509
G01 X1.5450Y4.1691
G01 X1.5889Y4.1289
G01 X1.6515Y4.0602
G01 X1.6637Y4.0454
G01 X1.7134Y3.9784
G01 X1.7240Y3.9625
G01 X1.7716Y3.8826
G01 X1.8116Y3.7987
G01 X1.8189Y3.7810
G01 X1.8500Y3.6933
G01 X1.8749Y3.5939
G01 X1.8900Y3.4924
G01 X1.8950Y3.3900
G01 X1.8900Y3.2876
G01 X1.8766Y3.1956
G01 X1.8728Y3.1768
G01 X1.8526Y3.0959
G01 X1.8470Y3.0776
G01 X1.8155Y2.9901
G01 X1.7759Y2.9059
G01 X1.7669Y2.8891
G01 X1.7189Y2.8094
G01 X1.6578Y2.7271
G01 X1.5889Y2.6511
G01 X1.5129Y2.5822
G01 X1.4306Y2.5211
G01 X1.3426Y2.4684
G01 X1.2499Y2.4245
G01 X1.1533Y2.3900
G01 X1.0539Y2.3651
G01 X0.9524Y2.3500
G01 X0.8500Y2.3450
G01 X0.7476Y2.3500
G01 X0.6461Y2.3651
G01 X0.5467Y2.3900
G01 X0.4501Y2.4245
G01 X0.3574Y2.4684
G01 X0.2694Y2.5211
G01 X0.1871Y2.5822
G01 X0.1111Y2.6511
G01 X0.0422Y2.7271
G01 X-0.0189Y2.8094
G01 X-0.0716Y2.8974
G01 X-0.1155Y2.9901
G01 X-0.1500Y3.0867
G01 X-0.1749Y3.1861
G01 X-0.1900Y3.2876
G01 X-0.1950Y3.3900
G01 X-0.1900Y3.4924
G01 X-0.1749Y3.5939
G01 X-0.1500Y3.6933
G01 X-0.1155Y3.7899
G01 X-0.0716Y3.8826
G01 X-0.0189Y3.9706
G01 X0.0422Y4.0529
G01 X0.1111Y4.1289
G01 X0.1550Y4.1691
G00 Z0.3000
G00 X0.0350Y4.2221
G01 Z-0.1500
G01 X0.0350Y5.0979
G01 X0.0156Y5.1174
G01 X-0.0506Y5.1909
G01 X-0.1187Y5.2828
G01 X-0.1774Y5.3808
G01 X-0.2263Y5.4842
G01 X-0.2648Y5.5918
G01 X-0.2926Y5.7027
G01 X-0.3094Y5.8158
G01 X-0.3150Y5.9300
G01 X-0.3094Y6.0442
G01 X-0.2926Y6.1573
G01 X-0.2648Y6.2682
G01 X-0.2263Y6.3758
G01 X-0.1774Y6.4792
G01 X-0.1187Y6.5772
G01 X-0.0506Y6.6691
G01 X0.0262Y6.7538
G01 X0.1109Y6.8306
G01 X0.2028Y6.8987
G01 X0.3008Y6.9574
G01 X0.4042Y7.0063
G01 X0.5118Y7.0448
G01 X0.6227Y7.0726
G01 X0.7358Y7.0894
G01 X0.8500Y7.0950
G01 X0.9642Y7.0894
G01 X1.0773Y7.0726
G01 X1.1882Y7.0448
G01 X1.2958Y7.0063
G01 X1.3992Y6.9574
G01 X1.4972Y6.8987
G01 X1.5891Y6.8306
G01 X1.6626Y6.7644
G01 X1.6821Y6.7450
G01 X2.6224Y6.7450
G01 X10.4335Y14.5561
G01 X7.2478Y14.5561
G01 X7.2283Y14.5366
G01 X7.1665Y14.4806
G01 X7.1426Y14.4610
G01 X7.0629Y14.4024
G01 X6.9649Y14.3436
G01 X6.8757Y14.3010
G01 X6.8471Y14.2892
G01 X6.7539Y14.2562
G01 X6.6430Y14.2284
G01 X6.5452Y14.2136
G01 X6.5145Y14.2105
G01 X6.4157Y14.2061
G01 X6.3015Y14.2117
G01 X6.1884Y14.2284
G01 X6.0924Y14.2521
G01 X6.0628Y14.2611
G01 X5.9699Y14.2947
G01 X5.8665Y14.3436
G01 X5.7815Y14.3941
G01 X5.7558Y14.4113
G01 X5.6766Y14.4705
G01 X5.5919Y14.5473
G01 X5.5253Y14.6203
G01 X5.5056Y14.6442
G01 X5.4470Y14.7238
G01 X5.3883Y14.8219
G01 X5.3457Y14.9111
G01 X5.3338Y14.9397
G01 X5.3009Y15.0329
G01 X5.2731Y15.1438
G01 X5.2582Y15.2415
G01 X5.2552Y15.2723
G01 X5.2507Y15.3711
G01 X5.2552Y15.4698
G01 X5.2582Y15.5006
G01 X5.2731Y15.5983
G01 X5.3009Y15.7092
G01 X5.3338Y15.8025
G01 X5.3457Y15.8310
G01 X5.3883Y15.9202
G01 X5.4470Y16.0183
G01 X5.5056Y16.0979
G01 X5.5253Y16.1218
G01 X5.5919Y16.1948
G01 X5.6766Y16.2716
G01 X5.7558Y16.3308
G01 X5.7815Y16.3480
G01 X5.8665Y16.3985
G01 X5.9557Y16.4411
G01 X5.9843Y16.4529
G01 X6.0628Y16.4810
G01 X6.0924Y16.4900
G01 X6.1884Y16.5137
G01 X6.3015Y16.5305
G01 X6.4157Y16.5361
G01 X6.5145Y16.5316
G01 X6.5452Y16.5286
G01 X6.6430Y16.5137
G01 X6.7539Y16.4859
G01 X6.8471Y16.4529
G01 X6.8757Y16.4411
G01 X6.9649Y16.3985
G01 X7.0629Y16.3397
G01 X7.1426Y16.2811
G01 X7.1665Y16.2615
G01 X7.2283Y16.2055
G01 X7.2478Y16.1861
G01 X23.9986Y16.1861
G01 X24.0181Y16.2055
G01 X24.0916Y16.2716
G01 X24.1835Y16.3397
G01 X24.2815Y16.3985
G01 X24.3849Y16.4474
G01 X24.4925Y16.4859
G01 X24.6034Y16.5137
G01 X24.7165Y16.5305
G01 X24.8153Y16.5357
G01 X24.8462Y16.5357
G01 X24.9449Y16.5305
G01 X25.0428Y16.5163
G01 X25.0731Y16.5103
G01 X25.1689Y16.4859
G01 X25.2765Y16.4474
G01 X25.3661Y16.4054
G01 X25.3933Y16.3909
G01 X25.4780Y16.3397
G01 X25.5698Y16.2716
G01 X25.6433Y16.2055
G01 X25.6651Y16.1836
G01 X25.7313Y16.1101
G01 X25.7905Y16.0309
G01 X25.8076Y16.0052
G01 X25.8581Y15.9202
G01 X25.9008Y15.8310
G01 X25.9126Y15.8025
G01 X25.9455Y15.7092
G01 X25.9733Y15.5983
G01 X25.9901Y15.4853
G01 X25.9953Y15.3865
G01 X25.9953Y15.3556
G01 X25.9901Y15.2569
G01 X25.9760Y15.1590
G01 X25.9699Y15.1287
G01 X25.9497Y15.0478
G01 X25.9407Y15.0182
G01 X25.9070Y14.9252
G01 X25.8651Y14.8357
G01 X25.8505Y14.8084
G01 X25.8076Y14.7369
G01 X25.7905Y14.7112
G01 X25.7313Y14.6320
G01 X25.6651Y14.5585
G01 X25.6433Y14.5366
G01 X25.5698Y14.4705
G01 X25.4780Y14.4024
G01 X25.3799Y14.3436
G01 X25.2907Y14.3010
G01 X25.2621Y14.2892
G01 X25.1689Y14.2562
G01 X25.0731Y14.2318
G01 X25.0428Y14.2258
G01 X24.9449Y14.2117
G01 X24.8307Y14.2061
G01 X24.7319Y14.2105
G01 X24.7012Y14.2136
G01 X24.6034Y14.2284
G01 X24.5074Y14.2521
G01 X24.4778Y14.2611
G01 X24.3993Y14.2892
G01 X24.3707Y14.3010
G01 X24.2815Y14.3436
G01 X24.1835Y14.4024
G01 X24.0916Y14.4705
G01 X24.0181Y14.5366
G01 X23.9986Y14.5561
G01 X12.7386Y14.5561
G01 X3.5363Y5.3537
G01 X3.4770Y5.3000
G01 X3.4254Y5.2613
G01 X3.3997Y5.2441
G01 X3.3442Y5.2112
G01 X3.2719Y5.1770
G01 X3.2113Y5.1549
G01 X3.1817Y5.1460
G01 X3.1190Y5.1307
G01 X3.0399Y5.1189
G01 X2.9600Y5.1150
G01 X1.6821Y5.1150
G01 X1.6650Y5.0979
G01 X1.6650Y4.2221
G01 X1.6844Y4.2026
G01 X1.7506Y4.1291
G01 X1.8187Y4.0372
G01 X1.8774Y3.9392
G01 X1.9263Y3.8358
G01 X1.9648Y3.7282
G01 X1.9926Y3.6173
G01 X2.0094Y3.5042
G01 X2.0146Y3.4055
G01 X2.0146Y3.3745
G01 X2.0094Y3.2758
G01 X1.9953Y3.1780
G01 X1.9892Y3.1476
G01 X1.9690Y3.0667
G01 X1.9600Y3.0371
G01 X1.9263Y2.9442
G01 X1.8844Y2.8546
G01 X1.8698Y2.8274
G01 X1.8187Y2.7428
G01 X1.7506Y2.6509
G01 X1.6738Y2.5662
G01 X1.5891Y2.4894
G01 X1.4972Y2.4213
G01 X1.3992Y2.3626
G01 X1.2958Y2.3137
G01 X1.1882Y2.2752
G01 X1.0773Y2.2474
G01 X0.9642Y2.2306
G01 X0.8500Y2.2250
G01 X0.7358Y2.2306
G01 X0.6227Y2.2474
G01 X0.5118Y2.2752
G01 X0.4042Y2.3137
G01 X0.3008Y2.3626
G01 X0.2028Y2.4213
G01 X0.1109Y2.4894
G01 X0.0262Y2.5662
G01 X-0.0405Y2.6392
G01 X-0.0601Y2.6631
G01 X-0.1187Y2.7428
G01 X-0.1774Y2.8408
G01 X-0.2263Y2.9442
G01 X-0.2600Y3.0371
G01 X-0.2690Y3.0667
G01 X-0.2926Y3.1627
G01 X-0.3075Y3.2605
G01 X-0.3105Y3.2912
G01 X-0.3146Y3.3745
G01 X-0.3146Y3.4055
G01 X-0.3094Y3.5042
G01 X-0.2926Y3.6173
G01 X-0.2648Y3.7282
G01 X-0.2263Y3.8358
G01 X-0.1774Y3.9392
G01 X-0.1187Y4.0372
G01 X-0.0506Y4.1291
G01 X0.0156Y4.2026
G01 X0.0350Y4.2221
G00 Z0.3000
G00 X0.2750Y9.1939
G01 Z-0.1500
G01 X0.2604Y9.1826
G01 X0.1959Y9.1241
G01 X0.1350Y9.0568
G01 X0.0809Y8.9839
G01 X0.0342Y8.9060
G01 X-0.0046Y8.8240
G01 X-0.0352Y8.7385
G01 X-0.0572Y8.6505
G01 X-0.0705Y8.5607
G01 X-0.0750Y8.4700
G01 X-0.0705Y8.3793
G01 X-0.0572Y8.2895
G01 X-0.0352Y8.2015
G01 X-0.0046Y8.1160
G01 X0.0342Y8.0340
G01 X0.0809Y7.9561
G01 X0.1350Y7.8832
G01 X0.1959Y7.8159
G01 X0.2632Y7.7550
G01 X0.3361Y7.7009
G01 X0.4140Y7.6542
G01 X0.4960Y7.6154
G01 X0.5815Y7.5848
G01 X0.6695Y7.5628
G01 X0.7593Y7.5495
G01 X0.8500Y7.5450
G01 X0.9407Y7.5495
G01 X1.0305Y7.5628
G01 X1.1185Y7.5848
G01 X1.2040Y7.6154
G01 X1.2860Y7.6542
G01 X1.3639Y7.7009
G01 X1.4368Y7.7550
G01 X1.5041Y7.8159
G01 X1.5673Y7.8861
G01 X1.6191Y7.9561
G01 X1.6640Y8.0308
G01 X1.7031Y8.1127
G01 X1.7352Y8.2015
G01 X1.7572Y8.2895
G01 X1.7705Y8.3793
G01 X1.7750Y8.4700
G01 X1.7705Y8.5607
G01 X1.7564Y8.6541
G01 X1.7352Y8.7385
G01 X1.7059Y8.8205
G01 X1.6674Y8.9028
G01 X1.6191Y8.9839
G01 X1.5650Y9.0568
G01 X1.5041Y9.1241
G01 X1.4396Y9.1826
G01 X1.4250Y9.1939
G01 X1.4250Y13.7418
G01 X5.7382Y18.0550
G01 X25.5818Y18.0550
G01 X26.5778Y17.0590
G01 X26.5778Y3.9223
G01 X24.9425Y2.2871
G01 X23.9770Y2.2870
G01 X23.9625Y2.2848
G01 X23.9554Y2.2827
G01 X23.9422Y2.2764
G01 X23.9303Y2.2676
G01 X23.9205Y2.2567
G01 X23.9164Y2.2506
G01 X23.9101Y2.2373
G01 X23.9065Y2.2231
G01 X23.9057Y2.2121
G01 X23.9057Y0.5121
G01 X23.9065Y0.5011
G01 X23.9101Y0.4868
G01 X23.9164Y0.4735
G01 X23.9251Y0.4617
G01 X23.9360Y0.4518
G01 X23.9486Y0.4443
G01 X23.9625Y0.4393
G01 X23.9770Y0.4372
G01 X25.6807Y0.4371
G01 X25.6917Y0.4379
G01 X25.6989Y0.4393
G01 X25.7128Y0.4443
G01 X25.7193Y0.4477
G01 X25.7311Y0.4565
G01 X25.7409Y0.4674
G01 X25.7485Y0.4800
G01 X25.7513Y0.4868
G01 X25.7549Y0.5011
G01 X25.7556Y0.5084
G01 X25.7557Y1.4739
G01 X27.5619Y3.2802
G01 X27.5973Y3.3194
G01 X27.6309Y3.3647
G01 X27.6599Y3.4131
G01 X27.6826Y3.4608
G01 X27.7040Y3.5208
G01 X27.7168Y3.5720
G01 X27.7250Y3.6278
G01 X27.7278Y3.6842
G01 X27.7278Y17.2972
G01 X27.7246Y17.3572
G01 X27.7168Y17.4094
G01 X27.7031Y17.4641
G01 X27.6840Y17.5172
G01 X27.6581Y17.5714
G01 X27.6309Y17.6166
G01 X27.5996Y17.6591
G01 X27.5607Y17.7025
G01 X26.2253Y19.0379
G01 X26.1848Y19.0745
G01 X26.1395Y19.1081
G01 X26.0911Y19.1371
G01 X26.0434Y19.1597
G01 X25.9834Y19.1812
G01 X25.9322Y19.1940
G01 X25.8764Y19.2022
G01 X25.8200Y19.2050
G01 X5.5000Y19.2050
G01 X5.4400Y19.2018
G01 X5.3878Y19.1940
G01 X5.3331Y19.1802
G01 X5.2800Y19.1612
G01 X5.2257Y19.1353
G01 X5.1805Y19.1081
G01 X5.1381Y19.0767
G01 X5.0934Y19.0366
G01 X0.4434Y14.3866
G01 X0.4055Y14.3448
G01 X0.3740Y14.3025
G01 X0.3429Y14.2511
G01 X0.3188Y14.2000
G01 X0.2988Y14.1434
G01 X0.2860Y14.0922
G01 X0.2782Y14.0400
G01 X0.2750Y13.9818
G01 X0.2750Y9.1939
G00 Z0.3000
G00 X0.1550Y9.2491
G01 Z-0.1500
G01 X0.1551Y13.9848
G01 X0.1576Y14.0386
G01 X0.1595Y14.0576
G01 X0.1684Y14.1156
G01 X0.1824Y14.1725
G01 X0.1879Y14.1908
G01 X0.2079Y14.2460
G01 X0.2371Y14.3076
G01 X0.2670Y14.3580
G01 X0.2776Y14.3739
G01 X0.3128Y14.4209
G01 X0.3586Y14.4714
G01 X5.0086Y19.1214
G01 X5.0518Y19.1610
G01 X5.0666Y19.1731
G01 X5.1139Y19.2079
G01 X5.1641Y19.2382
G01 X5.1809Y19.2472
G01 X5.2340Y19.2721
G01 X5.2983Y19.2951
G01 X5.3644Y19.3116
G01 X5.4224Y19.3205
G01 X5.4414Y19.3224
G01 X5.5000Y19.3250
G01 X25.8200Y19.3250
G01 X25.8881Y19.3217
G01 X25.9556Y19.3116
G01 X26.0125Y19.2976
G01 X26.0308Y19.2921
G01 X26.0770Y19.2755
G01 X26.0947Y19.2682
G01 X26.1476Y19.2429
G01 X26.2061Y19.2079
G01 X26.2609Y19.1672
G01 X26.3080Y19.1248
G01 X27.6509Y17.7817
G01 X27.6838Y17.7453
G01 X27.6959Y17.7305
G01 X27.7307Y17.6833
G01 X27.7610Y17.6331
G01 X27.7701Y17.6163
G01 X27.7949Y17.5632
G01 X27.8179Y17.4989
G01 X27.8345Y17.4328
G01 X27.8433Y17.3748
G01 X27.8452Y17.3558
G01 X27.8478Y17.2972
G01 X27.8478Y3.6842
G01 X27.8445Y3.6160
G01 X27.8345Y3.5486
G01 X27.8204Y3.4916
G01 X27.8149Y3.4733
G01 X27.7949Y3.4182
G01 X27.7657Y3.3565
G01 X27.7358Y3.3061
G01 X27.7252Y3.2902
G01 X27.6959Y3.2508
G01 X27.6838Y3.2360
G01 X27.6443Y3.1927
G01 X25.8757Y1.4242
G01 X25.8757Y0.5121
G01 X25.8736Y0.4834
G01 X25.8699Y0.4647
G01 X25.8643Y0.4464
G01 X25.8570Y0.4287
G01 X25.8480Y0.4118
G01 X25.8373Y0.3959
G01 X25.8252Y0.3811
G01 X25.8117Y0.3676
G01 X25.7969Y0.3554
G01 X25.7810Y0.3448
G01 X25.7641Y0.3358
G01 X25.7464Y0.3285
G01 X25.7281Y0.3229
G01 X25.7093Y0.3192
G01 X25.6807Y0.3171
G01 X23.9711Y0.3173
G01 X23.9521Y0.3192
G01 X23.9333Y0.3229
G01 X23.9150Y0.3285
G01 X23.8973Y0.3358
G01 X23.8805Y0.3448
G01 X23.8645Y0.3554
G01 X23.8498Y0.3676
G01 X23.8362Y0.3811
G01 X23.8241Y0.3959
G01 X23.8135Y0.4118
G01 X23.8044Y0.4287
G01 X23.7971Y0.4464
G01 X23.7916Y0.4647
G01 X23.7878Y0.4834
G01 X23.7857Y0.5121
G01 X23.7857Y2.2121
G01 X23.7878Y2.2407
G01 X23.7916Y2.2594
G01 X23.7971Y2.2778
G01 X23.8044Y2.2954
G01 X23.8135Y2.3123
G01 X23.8241Y2.3282
G01 X23.8362Y2.3430
G01 X23.8498Y2.3565
G01 X23.8645Y2.3687
G01 X23.8805Y2.3793
G01 X23.8973Y2.3883
G01 X23.9150Y2.3957
G01 X23.9333Y2.4012
G01 X23.9521Y2.4049
G01 X23.9711Y2.4068
G01 X24.8928Y2.4071
G01 X26.4578Y3.9720
G01 X26.4578Y17.0093
G01 X25.5321Y17.9350
G01 X5.7879Y17.9350
G01 X1.5450Y13.6921
G01 X1.5450Y9.2491
G01 X1.5889Y9.2089
G01 X1.6515Y9.1402
G01 X1.6637Y9.1254
G01 X1.7134Y9.0584
G01 X1.7240Y9.0425
G01 X1.7716Y8.9626
G01 X1.8116Y8.8787
G01 X1.8189Y8.8610
G01 X1.8500Y8.7733
G01 X1.8749Y8.6739
G01 X1.8900Y8.5724
G01 X1.8950Y8.4700
G01 X1.8900Y8.3676
G01 X1.8749Y8.2661
G01 X1.8500Y8.1667
G01 X1.8189Y8.0790
G01 X1.8116Y8.0613
G01 X1.7759Y7.9859
G01 X1.7669Y7.9691
G01 X1.7189Y7.8894
G01 X1.6637Y7.8146
G01 X1.6515Y7.7998
G01 X1.5889Y7.7311
G01 X1.5129Y7.6622
G01 X1.4306Y7.6011
G01 X1.3426Y7.5484
G01 X1.2499Y7.5045
G01 X1.1533Y7.4700
G01 X1.0539Y7.4451
G01 X0.9524Y7.4300
G01 X0.8500Y7.4250
G01 X0.7476Y7.4300
G01 X0.6461Y7.4451
G01 X0.5467Y7.4700
G01 X0.4501Y7.5045
G01 X0.3574Y7.5484
G01 X0.2694Y7.6011
G01 X0.1871Y7.6622
G01 X0.1111Y7.7311
G01 X0.0422Y7.8071
G01 X-0.0189Y7.8894
G01 X-0.0716Y7.9774
G01 X-0.1155Y8.0701
G01 X-0.1500Y8.1667
G01 X-0.1749Y8.2661
G01 X-0.1900Y8.3676
G01 X-0.1950Y8.4700
G01 X-0.1900Y8.5724
G01 X-0.1749Y8.6739
G01 X-0.1500Y8.7733
G01 X-0.1155Y8.8699
G01 X-0.0716Y8.9626
G01 X-0.0189Y9.0506
G01 X0.0422Y9.1329
G01 X0.1111Y9.2089
G01 X0.1550Y9.2491
G00 Z0.3000
G00 X0.0350Y9.3021
G01 Z-0.1500
G01 X0.0351Y13.9877
G01 X0.0378Y14.0445
G01 X0.0408Y14.0752
G01 X0.0507Y14.1390
G01 X0.0660Y14.2017
G01 X0.0749Y14.2313
G01 X0.0970Y14.2919
G01 X0.1312Y14.3642
G01 X0.1641Y14.4197
G01 X0.1813Y14.4454
G01 X0.2200Y14.4970
G01 X0.2737Y14.5563
G01 X4.9237Y19.2063
G01 X4.9713Y19.2499
G01 X4.9952Y19.2695
G01 X5.0472Y19.3076
G01 X5.1024Y19.3411
G01 X5.1296Y19.3557
G01 X5.1881Y19.3830
G01 X5.2634Y19.4099
G01 X5.3410Y19.4293
G01 X5.4048Y19.4392
G01 X5.4355Y19.4422
G01 X5.5000Y19.4450
G01 X25.8200Y19.4450
G01 X25.8999Y19.4411
G01 X25.9790Y19.4293
G01 X26.0417Y19.4140
G01 X26.0713Y19.4051
G01 X26.1175Y19.3885
G01 X26.1460Y19.3767
G01 X26.2042Y19.3488
G01 X26.2728Y19.3076
G01 X26.3370Y19.2600
G01 X26.3908Y19.2117
G01 X27.7398Y17.8623
G01 X27.7727Y17.8259
G01 X27.7923Y17.8020
G01 X27.8305Y17.7500
G01 X27.8640Y17.6948
G01 X27.8785Y17.6676
G01 X27.9058Y17.6091
G01 X27.9327Y17.5338
G01 X27.9522Y17.4562
G01 X27.9620Y17.3924
G01 X27.9650Y17.3617
G01 X27.9678Y17.2972
G01 X27.9678Y3.6842
G01 X27.9650Y3.6197
G01 X27.9620Y3.5889
G01 X27.9522Y3.5252
G01 X27.9368Y3.4625
G01 X27.9279Y3.4329
G01 X27.9058Y3.3723
G01 X27.8716Y3.3000
G01 X27.8387Y3.2444
G01 X27.8216Y3.2187
G01 X27.7923Y3.1793
G01 X27.7727Y3.1554
G01 X27.7291Y3.1079
G01 X25.9957Y1.3745
G01 X25.9957Y0.5121
G01 X25.9953Y0.4966
G01 X25.9923Y0.4658
G01 X25.9863Y0.4355
G01 X25.9773Y0.4059
G01 X25.9655Y0.3774
G01 X25.9509Y0.3501
G01 X25.9337Y0.3244
G01 X25.9141Y0.3005
G01 X25.8923Y0.2787
G01 X25.8684Y0.2590
G01 X25.8427Y0.2419
G01 X25.8154Y0.2273
G01 X25.7868Y0.2155
G01 X25.7572Y0.2065
G01 X25.7269Y0.2005
G01 X25.6962Y0.1974
G01 X25.6807Y0.1971
G01 X23.9807Y0.1971
G01 X23.9653Y0.1974
G01 X23.9345Y0.2005
G01 X23.9042Y0.2065
G01 X23.8746Y0.2155
G01 X23.8460Y0.2273
G01 X23.8188Y0.2419
G01 X23.7931Y0.2590
G01 X23.7692Y0.2787
G01 X23.7473Y0.3005
G01 X23.7277Y0.3244
G01 X23.7105Y0.3501
G01 X23.6960Y0.3774
G01 X23.6841Y0.4059
G01 X23.6751Y0.4355
G01 X23.6691Y0.4658
G01 X23.6661Y0.4966
G01 X23.6657Y0.5121
G01 X23.6661Y2.2275
G01 X23.6691Y2.2583
G01 X23.6751Y2.2886
G01 X23.6841Y2.3182
G01 X23.6960Y2.3467
G01 X23.7105Y2.3740
G01 X23.7277Y2.3997
G01 X23.7473Y2.4236
G01 X23.7692Y2.4455
G01 X23.7931Y2.4651
G01 X23.8188Y2.4822
G01 X23.8460Y2.4968
G01 X23.8746Y2.5086
G01 X23.9042Y2.5176
G01 X23.9345Y2.5237
G01 X23.9653Y2.5267
G01 X23.9807Y2.5271
G01 X24.8431Y2.5271
G01 X26.3378Y4.0217
G01 X26.3378Y16.9596
G01 X25.4824Y17.8150
G01 X5.8376Y17.8150
G01 X1.6650Y13.6424
G01 X1.6650Y9.3021
G01 X1.6844Y9.2826
G01 X1.7506Y9.2091
G01 X1.8187Y9.1172
G01 X1.8774Y9.0192
G01 X1.9263Y8.9158
G01 X1.9648Y8.8082
G01 X1.9926Y8.6973
G01 X2.0094Y8.5842
G01 X2.0150Y8.4700
G01 X2.0094Y8.3558
G01 X1.9926Y8.2427
G01 X1.9648Y8.1318
G01 X1.9263Y8.0242
G01 X1.8774Y7.9208
G01 X1.8187Y7.8228
G01 X1.7506Y7.7309
G01 X1.6738Y7.6462
G01 X1.5891Y7.5694
G01 X1.4972Y7.5013
G01 X1.3992Y7.4426
G01 X1.2958Y7.3937
G01 X1.1882Y7.3552
G01 X1.0773Y7.3274
G01 X0.9642Y7.3106
G01 X0.8500Y7.3050
G01 X0.7358Y7.3106
G01 X0.6227Y7.3274
G01 X0.5118Y7.3552
G01 X0.4042Y7.3937
G01 X0.3008Y7.4426
G01 X0.2028Y7.5013
G01 X0.1109Y7.5694
G01 X0.0262Y7.6462
G01 X-0.0506Y7.7309
G01 X-0.1187Y7.8228
G01 X-0.1774Y7.9208
G01 X-0.2263Y8.0242
G01 X-0.2648Y8.1318
G01 X-0.2926Y8.2427
G01 X-0.3094Y8.3558
G01 X-0.3150Y8.4700
G01 X-0.3094Y8.5842
G01 X-0.2926Y8.6973
G01 X-0.2648Y8.8082
G01 X-0.2263Y8.9158
G01 X-0.1774Y9.0192
G01 X-0.1187Y9.1172
G01 X-0.0506Y9.2091
G01 X0.0156Y9.2826
G01 X0.0350Y9.3021
G00 Z0.3000
G00 Z0.3000
G00 X0Y0
M05
